{
    "searchForRestaurant": "ค้นหาร้านอาหาร",
    "search": "ค้นหา",
    "language": "ภาษา",
    "currency": "หน่วยเงิน",
    "done": "ตกลง",
    "selectDistance": "เลือกระยะทาง",
    "km": "km",
    "searchNear": "ระยะทาง",
    "anotherLocation": "เลือกสถานที่",
    "searchForLocation": "ค้นหาสถานที่",
    "mapSearch": "ค้นหาจากแผนที่",
    "goToMenu": "ไปยังเมนู",
    "qrCodeSearch": "ค้นหาจากรหัส QR",
    "restaurant_name": "ร้านอาหาร",
    "restaurant_type": "ประเภท",
    "restaurant_service": "บริการ",
    "food_name": "อาหาร",
    "food_category": "หมวดหมู่",
    "food_cuisine": "สัญชาติ",
    "food_ingredient": "ส่วนประกอบ",
    "meal": "มื้อ",
    "noSearchResult": "ไม่มีผลลัพธ์การค้นหา",
    "filterResult": "กรองผลลัพธ์การค้นหา",
    "in": "ใน",
    "at": "ที่",
    "latitude": "Lattitude",
    "longtitude": "Longtitude",
    "radius": "ขอบเขต",
    "searchResult": "ผลลัพธ์การค้นหา",
    "translate": "แปล",
    "description": "คำอธิบาย",
    "ingredient": "ส่วนประกอบ",
    "back": "กลับ",
    "homePage": "หน้าแรก",
    "menu": "เมนู",
    "error": "ผิดพลาด",
    "tryAgain": "กรุณาลองใหม่อีกครั้ง",
    "contain": "มีคำว่า",
    "selectDropdown": "กรุณาเลือกจาก dropdown"
}