{
    "searchForRestaurant": "搜索餐厅",
    "search": "搜",
    "language": "语言",
    "currency": "币",
    "done": "做完",
    "selectDistance": "选择距离",
    "km": "km",
    "searchNear": "搜索近",
    "anotherLocation": "另一个位置",
    "searchForLocation": "搜索位置",
    "mapSearch": "图搜",
    "goToMenu": "进入菜单",
    "qrCodeSearch": "QR代码搜索",
    "restaurant_name": "餐馆",
    "restaurant_type": "类型",
    "restaurant_service": "的服务",
    "food_name": "食物",
    "food_category": "种类",
    "food_cuisine": "菜系",
    "food_ingredient": "配料",
    "meal": "餐食",
    "noSearchResult": "无搜索结果",
    "filterResult": "过滤后的结果",
    "in": "在",
    "at": "在",
    "latitude": "Lattitude",
    "longtitude": "Longtitude",
    "radius": "范围",
    "searchResult": "搜索结果",
    "translate": "译",
    "description": "描写",
    "ingredient": "配料",
    "back": "背部",
    "homePage": "主页",
    "menu": "菜单",
    "error": "错误",
    "tryAgain": "请再试一次",
    "contain": "包含",
    "selectDropdown": "请从 dropdown 选择"
}